{
  "data": [
    {
      "id": 3,
      "location": "애월읍, 제주시",
      "price": 93666,
      "latitude": "33.4721",
      "longitude": "126.3456",
      "reviewsAverage": 4.5,
      "images": [
        {
          "id": 75,
          "imageLink": "https://a0.muscache.com/im/pictures/miso/Hosting-764884121437376695/original/997b9211-d69f-4529-8ac1-7022eae62b0c.jpeg",
          "orientation": "LANDSCAPE"
        },
        {
          "id": 76,
          "imageLink": "https://a0.muscache.com/im/pictures/miso/Hosting-764884121437376695/original/991cf792-0881-432c-b42a-fb998340688c.jpeg",
          "orientation": "LANDSCAPE"
        },
        {
          "id": 77,
          "imageLink": "https://a0.muscache.com/im/pictures/miso/Hosting-764884121437376695/original/66edab4f-3381-418d-9f8e-e3f6657c37f6.jpeg",
          "orientation": "LANDSCAPE"
        }
      ],
      "scrapped": false
    },
    {
      "id": 4,
      "location": "애월읍, 제주시",
      "price": 93666,
      "latitude": "33.4721",
      "longitude": "126.3456",
      "reviewsAverage": 4.5,
      "images": [
        {
          "id": 75,
          "imageLink": "https://a0.muscache.com/im/pictures/miso/Hosting-764884121437376695/original/997b9211-d69f-4529-8ac1-7022eae62b0c.jpeg",
          "orientation": "LANDSCAPE"
        },
        {
          "id": 76,
          "imageLink": "https://a0.muscache.com/im/pictures/miso/Hosting-764884121437376695/original/991cf792-0881-432c-b42a-fb998340688c.jpeg",
          "orientation": "LANDSCAPE"
        },
        {
          "id": 77,
          "imageLink": "https://a0.muscache.com/im/pictures/miso/Hosting-764884121437376695/original/66edab4f-3381-418d-9f8e-e3f6657c37f6.jpeg",
          "orientation": "LANDSCAPE"
        }
      ],
      "scrapped": false
    },
    {
      "id": 5,
      "location": "애월읍, 제주시",
      "price": 93666,
      "latitude": "33.4721",
      "longitude": "126.3456",
      "reviewsAverage": 4.5,
      "images": [
        {
          "id": 75,
          "imageLink": "https://a0.muscache.com/im/pictures/miso/Hosting-764884121437376695/original/997b9211-d69f-4529-8ac1-7022eae62b0c.jpeg",
          "orientation": "LANDSCAPE"
        },
        {
          "id": 76,
          "imageLink": "https://a0.muscache.com/im/pictures/miso/Hosting-764884121437376695/original/991cf792-0881-432c-b42a-fb998340688c.jpeg",
          "orientation": "LANDSCAPE"
        },
        {
          "id": 77,
          "imageLink": "https://a0.muscache.com/im/pictures/miso/Hosting-764884121437376695/original/66edab4f-3381-418d-9f8e-e3f6657c37f6.jpeg",
          "orientation": "LANDSCAPE"
        }
      ],
      "scrapped": false
    },
    {
      "id": 6,
      "location": "애월읍, 제주시",
      "price": 93666,
      "latitude": "33.4721",
      "longitude": "126.3456",
      "reviewsAverage": 4.5,
      "images": [
        {
          "id": 75,
          "imageLink": "https://a0.muscache.com/im/pictures/miso/Hosting-764884121437376695/original/997b9211-d69f-4529-8ac1-7022eae62b0c.jpeg",
          "orientation": "LANDSCAPE"
        },
        {
          "id": 76,
          "imageLink": "https://a0.muscache.com/im/pictures/miso/Hosting-764884121437376695/original/991cf792-0881-432c-b42a-fb998340688c.jpeg",
          "orientation": "LANDSCAPE"
        },
        {
          "id": 77,
          "imageLink": "https://a0.muscache.com/im/pictures/miso/Hosting-764884121437376695/original/66edab4f-3381-418d-9f8e-e3f6657c37f6.jpeg",
          "orientation": "LANDSCAPE"
        }
      ],
      "scrapped": false
    }
  ],
  "page": {
    "currentPage": 1,
    "pageSize": 4,
    "totalPages": 14,
    "totalItems": 56,
    "hasNextPage": true,
    "hasPrevPage": false
  }
}
