{
  "data": {
    "data": {
      "reviews": [
        {
          "id": 985,
          "accuracy": 5,
          "communication": 5,
          "cleanliness": 5,
          "location": 5,
          "checkIn": 5,
          "value": 5,
          "content": "â€œë‹¬â€ ì´ë¼ëŠ” ê°•ì•„ì§€ê°€ ë„ˆë¬´ ê·€ì—½ìŠµë‹ˆë‹¤. <br/>ë‹´ì— ë˜ ì˜¬ê²Œ ë‹¬ ì•„ ê±´ê°•í•´",
          "createdAt": "2024-11-24T05:28:59.000Z",
          "user": {
            "id": "0f6f5982-fd57-49ac-a472-933808a48297",
            "image": "https://a0.muscache.com/im/pictures/user/User/original/904cfa12-d9b0-418b-9e38-eb51bc97c2b1.jpeg",
            "name": "ì§„ì„­",
            "host": {
              "hostStartedAt": "2024-12-10T02:12:51.458Z",
              "isSuperHost": false
            }
          }
        },
        {
          "id": 986,
          "accuracy": 5,
          "communication": 5,
          "cleanliness": 5,
          "location": 5,
          "checkIn": 5,
          "value": 5,
          "content": "ì—¬íƒœê¹Œì§€ ê°€ë³¸ ìˆ™ì†Œì¤‘ì— ê°€ì¥ ìµœê³  ì˜€ìŠµë‹ˆë‹¤. ë“¤ì–´ê°”ì„ë•Œ ì¡°ëª…ê³¼ íˆí„°ê°€ ì¼œì ¸ìˆì–´ì„œ ë”°ëœ»í•˜ê³  ì•„ëŠ‘í•œ ë¶„ìœ„ê¸°ì˜€êµ¬ìš”. ë””í…Œì¼ìˆëŠ” ì†Œí’ˆë“¤ê³¼ ì„í…Œë¦¬ì–´ê°€ ê¸°ë¶„ì¢‹ê²Œ í•©ë‹ˆë‹¤. ì—„ì²­ ì²­ê²°í•˜êµ¬ ì¡°ì€ëƒ„ìƒˆê°€ ë‚©ë‹ˆë‹¤. ì¬ë°©ë¬¸ ì˜ì‚¬ ë„ˆë¬´ë‚˜ë¬´ ìˆìŠµë‹ˆë‹¤!! ì˜ ì‰¬ë‹¤ ê°‘ë‹ˆë‹¤",
          "createdAt": "2024-11-23T06:50:37.000Z",
          "user": {
            "id": "b4e02c2e-b1d0-41cb-878c-b55e407ed403",
            "image": "https://a0.muscache.com/im/pictures/user/User-427758195/original/9644e4dd-8cfb-44bc-aff7-56aba18d3cfe.jpeg",
            "name": "ê²½ì„ ",
            "host": {
              "hostStartedAt": "2024-12-10T02:12:51.465Z",
              "isSuperHost": false
            }
          }
        },
        {
          "id": 987,
          "accuracy": 5,
          "communication": 5,
          "cleanliness": 5,
          "location": 5,
          "checkIn": 5,
          "value": 5,
          "content": "ì •ë§ì¹œì ˆí•˜ì…¨ê³  ìœ„ì¹˜ë‚˜ ìˆ™ì†Œ ìƒíƒœ ë„ˆë¬´ë‹¤ ì¢‹ì•˜ìŠµë‹ˆë‹¤ ë‹¤ìŒì— ë˜ í•¨ë•ìœ¼ë¡œ ì˜¨ë‹¤ëª¬ ë˜ ê°€ê³ ì‹¶ì—ˆìŠµë‹ë‹¤ğŸ™ğŸ»ğŸ™ğŸ»",
          "createdAt": "2024-11-19T04:32:26.000Z",
          "user": {
            "id": "573393f6-a8e3-4566-a2a2-237496d0f87b",
            "image": "https://a0.muscache.com/im/users/38447721/profile_pic/1437126415/original.jpg",
            "name": "ì•„ë¦°",
            "host": {
              "hostStartedAt": "2024-12-10T02:12:51.469Z",
              "isSuperHost": false
            }
          }
        },
        {
          "id": 988,
          "accuracy": 5,
          "communication": 5,
          "cleanliness": 5,
          "location": 5,
          "checkIn": 5,
          "value": 5,
          "content": "ğŸ‘ğŸ»",
          "createdAt": "2024-10-13T04:38:31.000Z",
          "user": {
            "id": "acc25a36-d437-4bc7-a256-52b29d17bf61",
            "image": "https://a0.muscache.com/im/pictures/user/User-300910093/original/4fa5e373-c8bb-4889-99b4-b2be33224d86.jpeg",
            "name": "ì±„ë‚˜",
            "host": {
              "hostStartedAt": "2024-12-10T02:12:51.474Z",
              "isSuperHost": false
            }
          }
        },
        {
          "id": 989,
          "accuracy": 5,
          "communication": 5,
          "cleanliness": 5,
          "location": 5,
          "checkIn": 5,
          "value": 5,
          "content": "ì•„ëŠ‘í•˜ê³  ì¢‹ì•˜ìŠµë‹ˆë‹¤ í˜¸ìŠ¤íŠ¸ë‹˜ê³¼ì˜ ì†Œí†µë„ ì •ë§ ë¹¨ëì–´ìš”",
          "createdAt": "2024-10-08T07:01:33.000Z",
          "user": {
            "id": "3cb69b0c-9c99-4647-aa68-a2fd761aba4e",
            "image": "https://a0.muscache.com/im/pictures/user/User-447500949/original/3ea7eded-529e-49f3-b907-d2a53ee90bf8.jpeg",
            "name": "ì˜ˆì§„",
            "host": {
              "hostStartedAt": "2024-12-10T02:12:51.478Z",
              "isSuperHost": false
            }
          }
        },
        {
          "id": 990,
          "accuracy": 5,
          "communication": 5,
          "cleanliness": 5,
          "location": 5,
          "checkIn": 5,
          "value": 5,
          "content": "ì•„ëŠ‘í•˜ê³  ì˜ˆë»ì„œ ì €í¬ì§‘ì´ì—ˆìŒ ì¢‹ê² ë‹¤ ì‹¶ì—ˆì–´ìš” ã…ã… í™”ì¥ëŒ€ë„ ìˆê³  ì¹¨ëŒ€ ì˜†ì—ì„œ ì‘ì—…í•˜ê±°ë‚˜ ë­ ë¨¹ê¸° ì¢‹ê²Œ ì¡°ê·¸ë§Œ ê³µê°„ì´ ìˆì–´ì„œ ë” ì¢‹ì•˜ë„¤ìš”",
          "createdAt": "2024-10-06T06:56:08.000Z",
          "user": {
            "id": "3e779577-9da6-4526-b438-0ba444f5bde6",
            "image": "https://a0.muscache.com/im/pictures/user/ad0f9673-4bed-4173-b606-e9c82782c9a8.jpg",
            "name": "ì§€ì˜",
            "host": {
              "hostStartedAt": "2024-12-10T02:12:51.482Z",
              "isSuperHost": false
            }
          }
        },
        {
          "id": 991,
          "accuracy": 4,
          "communication": 4,
          "cleanliness": 4,
          "location": 4,
          "checkIn": 4,
          "value": 4,
          "content": "ë©‹ì§„ ì „ë§ê³¼ ì£¼ë³€ í™˜ê²½ì´ ì˜ˆìœ ë§¤ìš° ì˜ˆìœ ë°©. í•´ë³€ì—ì„œ ë„ë³´ë¡œ ì•½ 30ë¶„, ë‹¤ìŒ í¸ì˜ì ê¹Œì§€ ì•½ 10ë¶„ ê±°ë¦¬ì— ìˆì–´ ì¡°ê¸ˆ ì•„ì‰½ì§€ë§Œ, ê·¸ê±° ë¹¼ê³ ëŠ” ì•„ì£¼ ì¢‹ì•˜ì–´ìš”",
          "createdAt": "2024-09-26T05:08:51.000Z",
          "user": {
            "id": "6881e8ba-c282-4d98-b206-478e52e0004d",
            "image": "https://a0.muscache.com/im/pictures/user/4866a3e5-cb6b-4ec7-a0b8-cb4f31c96935.jpg",
            "name": "Lilly",
            "host": {
              "hostStartedAt": "2024-12-10T02:12:51.487Z",
              "isSuperHost": false
            }
          }
        },
        {
          "id": 992,
          "accuracy": 5,
          "communication": 5,
          "cleanliness": 5,
          "location": 5,
          "checkIn": 5,
          "value": 5,
          "content": "ì¢‹ì•„ìš”",
          "createdAt": "2024-09-20T05:45:29.000Z",
          "user": {
            "id": "02e2315c-3fe2-4c06-8b4f-142fc1283dd0",
            "image": "https://a0.muscache.com/im/Portrait/Avatars/messaging/b3e03835-ade9-4eb7-a0bb-2466ab9a534d.jpg?im_policy=medq_w_text&im_t=ìŠ¹&im_w=240&im_f=apple-sd-gothic-medium.ttf&im_c=ffffff",
            "name": "ìŠ¹ì˜¥",
            "host": {
              "hostStartedAt": "2023-07-09T23:47:37.093Z",
              "isSuperHost": true
            }
          }
        },
        {
          "id": 993,
          "accuracy": 5,
          "communication": 5,
          "cleanliness": 5,
          "location": 5,
          "checkIn": 5,
          "value": 5,
          "content": "ë°©ë„ ë„ˆë¬´ ì˜ˆì˜ê³  ì£¼ì°¨í•˜ê¸°ë„ í¸í•´ì„œ ì•„ì£¼ ë§Œì¡±í–ˆìŠµë‹ˆë‹¤!<br/>í•¨ë• í•´ë³€ì´ë‘ë„ ê°€ê¹Œì›Œì„œ ì—¬í–‰ ë‹¤ë‹ˆê¸° ì•„ì£¼ ì¢‹ì€ ìœ„ì¹˜ì—ìš”~",
          "createdAt": "2024-09-09T04:09:39.000Z",
          "user": {
            "id": "f67984ac-1fa0-4278-8fe1-f24c0fdeba89",
            "image": "https://a0.muscache.com/im/pictures/user/8dedfd3c-d0d2-4612-9b28-44aef72afae7.jpg",
            "name": "Kyungryul",
            "host": {
              "hostStartedAt": "2024-12-10T02:12:51.502Z",
              "isSuperHost": false
            }
          }
        },
        {
          "id": 994,
          "accuracy": 5,
          "communication": 5,
          "cleanliness": 5,
          "location": 5,
          "checkIn": 5,
          "value": 5,
          "content": "ì•„ëŠ‘í•˜ê³  ë”°ëœ»í•œ ìˆ™ì†Œì˜€ì–´ìš” ì—ì–´ì»¨ ë¹µë¹µí•˜ê³  ë‹¬ì´ë„ ë„ˆë¬´ ê·€ì—½ê³  ë‹¤ìŒì— ë˜ ì˜¨ë‹¤ë©´ ì˜ˆì•½í• ê±°ê°™ì•„ìš” ê°€ê¹Œìš´ê³³ì— ë°”ë‹¤ìˆ˜ì˜ë„ í•  ìˆ˜ ìˆì–´ì„œ ë‘ë²ˆì´ë‚˜í–ˆë„¤ìš” ëŒ€ë§Œì¡±ì…ë‹ˆë‹¤ !!!",
          "createdAt": "2024-09-07T04:55:55.000Z",
          "user": {
            "id": "3ed6cd0b-cba4-41b3-a423-1ac1fbb0429a",
            "image": "https://a0.muscache.com/im/pictures/user/c4ef6020-830f-4c88-b9bc-98c16c1bd59f.jpg",
            "name": "ì˜ˆë‚˜",
            "host": {
              "hostStartedAt": "2024-12-10T02:12:51.508Z",
              "isSuperHost": false
            }
          }
        }
      ],
      "count": 60,
      "accuracy": 4.8167,
      "communication": 4.8167,
      "cleanliness": 4.8167,
      "location": 4.8167,
      "checkIn": 4.8167,
      "value": 4.8167
    },
    "page": {
      "currentPage": 1,
      "pageSize": 10,
      "totalPages": 6,
      "totalItems": 60,
      "hasNextPage": true,
      "hasPrevPage": false
    }
  }
}
